[gd_resource type="Environment" load_steps=2 format=2]

[sub_resource type="ProceduralSky" id=1]
ground_bottom_color = Color( 0.647059, 0.839216, 0.945098, 1 )
ground_horizon_color = Color( 0.839216, 0.917647, 0.980392, 1 )

[resource]
background_mode = 2
background_sky = SubResource( 1 )
