[gd_resource type="ShaderMaterial" load_steps=5 format=2]

[ext_resource path="res://baseq3/textures/lab/glass.png" type="Texture" id=1]
[ext_resource path="res://baseq3/textures/lab/water.shader" type="Shader" id=2]


[sub_resource type="OpenSimplexNoise" id=2]

[sub_resource type="NoiseTexture" id=3]
seamless = true
as_normalmap = true
noise = SubResource( 2 )

[resource]
shader = ExtResource( 2 )
shader_param/time_mul = null
shader_param/uv_mul = 0.125
shader_param/noise = SubResource( 3 )
shader_param/tex = ExtResource( 1 )
