[gd_resource type="SpatialMaterial" load_steps=2 format=2]

[ext_resource path="res://baseq3/textures/lab/glass.png" type="Texture" id=1]

[resource]
flags_transparent = true
flags_unshaded = true
albedo_texture = ExtResource( 1 )
