[gd_resource type="SpatialMaterial" load_steps=2 format=2]

[ext_resource path="res://baseq3/textures/lab/metal.png" type="Texture" id=1]

[resource]
render_priority = -1
flags_unshaded = true
albedo_color = Color( 0.96875, 0.677734, 0.404907, 1 )
albedo_texture = ExtResource( 1 )
uv1_scale = Vector3( 32, 32, 32 )
