[gd_scene load_steps=2 format=2]

[ext_resource path="res://addons/mcir_editor/pattern/parts/base.gd" type="Script" id=1]

[node name="Base Pattern" type="Label"]
anchor_right = 1.0
anchor_bottom = 1.0
text = "This is an empty pattern, so of course, nobody cares about it."
align = 1
valign = 1
script = ExtResource( 1 )
__meta__ = {
"_edit_use_anchors_": false
}
