[gd_resource type="ProceduralSky" format=2]

[resource]
sky_horizon_color = Color( 0.0509804, 0.0980392, 0.12549, 1 )
sky_curve = 62.9471
sky_energy = 64.0
ground_bottom_color = Color( 0, 0, 0, 1 )
ground_horizon_color = Color( 0, 0, 0, 1 )
sun_latitude = 90.0
sun_angle_max = 5.05
sun_curve = 332.697
sun_energy = 64.0
