[gd_scene load_steps=4 format=2]

[ext_resource path="res://addons/mcir_editor/circuit/piecegraph.gd" type="Script" id=3]
[ext_resource path="res://addons/mcir_editor/piece/time.tscn" type="PackedScene" id=4]
[ext_resource path="res://addons/mcir_editor/pattern/pattern_list.tscn" type="PackedScene" id=5]

[node name="HBoxContainer" type="HBoxContainer"]
margin_right = 898.0
margin_bottom = 546.0
size_flags_vertical = 3

[node name="VBoxContainer" type="VBoxContainer" parent="."]
margin_right = 666.0
margin_bottom = 546.0
size_flags_horizontal = 3

[node name="GraphEdit" type="GraphEdit" parent="VBoxContainer"]
margin_right = 666.0
margin_bottom = 546.0
size_flags_horizontal = 3
size_flags_vertical = 3
right_disconnects = true
scroll_offset = Vector2( -4, -24 )
script = ExtResource( 3 )
__meta__ = {
"_edit_use_anchors_": false
}

[node name="Pc" type="PanelContainer" parent="."]
margin_left = 670.0
margin_right = 898.0
margin_bottom = 546.0

[node name="Vsv" type="VSplitContainer" parent="Pc"]
margin_left = 7.0
margin_top = 7.0
margin_right = 221.0
margin_bottom = 539.0

[node name="ItemList" parent="Pc/Vsv" instance=ExtResource( 5 )]
margin_right = 214.0
margin_bottom = 260.0

[node name="hb" parent="Pc/Vsv" instance=ExtResource( 4 )]
margin_top = 272.0
margin_right = 214.0
margin_bottom = 532.0
